{
  "kind": "collectionType",
  "collectionName": "subscriptions",
  "info": {
    "name": "subscriptions"
  },
  "options": {
    "increments": true,
    "timestamps": true,
    "draftAndPublish": true
  },
  "attributes": {
    "services": {
      "type": "string"
    },
    "mobile": {
      "type": "string"
    },
    "choose_a_plan": {
      "type": "string"
    }
  }
}
