{
  "routes": [
    {
      "method": "GET",
      "path": "/electricities",
      "handler": "electricity.find",
      "config": {
        "policies": []
      }
    },
    {
      "method": "GET",
      "path": "/electricities/count",
      "handler": "electricity.count",
      "config": {
        "policies": []
      }
    },
    {
      "method": "GET",
      "path": "/electricities/:id",
      "handler": "electricity.findOne",
      "config": {
        "policies": []
      }
    },
    {
      "method": "POST",
      "path": "/electricities",
      "handler": "electricity.create",
      "config": {
        "policies": []
      }
    },
    {
      "method": "PUT",
      "path": "/electricities/:id",
      "handler": "electricity.update",
      "config": {
        "policies": []
      }
    },
    {
      "method": "DELETE",
      "path": "/electricities/:id",
      "handler": "electricity.delete",
      "config": {
        "policies": []
      }
    }
  ]
}
